01-molecular-drug-test
…
Here we have an example of using the Xeva package to search for any molecular indicates of drug response in the MPNST PDX data.

Load PDX Data

PDX data is available on this Synapse project page that collates avaiable PDX and tumor model data across the project.

For this project we use the Xeva xenograft visualization and analysis tool to test out initial hypotheses of gene expression and mutation correlation.

## Welcome, Sara Gosline!
## 
## Welcome, Sara Gosline!
## 
## Welcome, Sara Gosline!

## # A tibble: 36 x 4
##    model.id           patient.id biobase.id      mDataType
##    <chr>              <chr>      <chr>           <chr>    
##  1 2-002_Doxorubinsin 2-002      2-002 xenograft RNASeq   
##  2 2-002_Everolimus   2-002      2-002 xenograft RNASeq   
##  3 2-002_Vehicle      2-002      2-002 xenograft RNASeq   
##  4 PDX1_Doxorubinsin  WU356      WU356_tumor     RNASeq   
##  5 PDX1_Doxorubinsin  WU356      WU356_normal    mutation 
##  6 PDX1_Doxorubinsin  WU356      WU356_tumor     mutation 
##  7 PDX1_Doxorubinsin  WU356      WU356_xenograft mutation 
##  8 PDX1_Everolimus    WU356      WU356_tumor     RNASeq   
##  9 PDX1_Everolimus    WU356      WU356_normal    mutation 
## 10 PDX1_Everolimus    WU356      WU356_tumor     mutation 
## # ... with 26 more rows
## ##--- making experiment slot -------
## Drug columns are
## drug
## [1] 1
## [1] 2
## [1] 3
## [1] 4
## [1] 5
…
